<?xml version="1.0" encoding="utf-8"?>
<!-- Generator: Adobe Illustrator 21.0.0, SVG Export Plug-In . SVG Version: 6.00 Build 0)  -->
<svg version="1.1" id="Layer_1" xmlns="http://www.w3.org/2000/svg" xmlns:xlink="http://www.w3.org/1999/xlink" x="0px" y="0px"
	 viewBox="0 0 1920 720" style="enable-background:new 0 0 1920 720;" xml:space="preserve">
<style type="text/css">
	.st0{display:none;fill:#4285F4;}
	.st1{fill:#0C2D4F;}
</style>
<rect x="-45.9" y="255.9" class="st0" width="922.5" height="455.7"/>
<path class="st1" d="M732,600.3c-162.5,55.7-327.2,62-414.8,18c-16.6-8.3-30.4-18.6-40.9-30.5c-8.1-9.3-14.3-19.6-18.2-31
	c-23.6-69.1,49.1-166.3,153.4-238.8C250,397.1,150.6,513.5,180.6,601c6.4,18.7,18.3,34.9,34.8,48.3c16.9,13.8,38.7,24.9,64.3,32.9
	l0,0c87.9,27.4,220.9,19.8,358.8-27.5c73.2-25.1,138.4-58.1,191.4-94.9C799.4,574.8,766.6,588.4,732,600.3z"/>
<path class="st1" d="M582.3,27.8c-112.7,1.3-203.4,94-202.1,206.8c1.3,112.7,94,203.4,206.8,202.1c112.7-1.3,203.4-94,202.1-206.8
	C787.8,117.2,695,26.5,582.3,27.8z M769.7,220.7l-96.4,1.1c-0.8-27-3.9-53-8.9-76.8c20.8-9.2,39.9-22,56.9-37.9
	C749.1,137.4,767,176.9,769.7,220.7z M707.7,93.7c-14.4,13.4-30.5,24.3-47.9,32.4c-3.4-12.4-7.3-24.1-11.9-34.8
	c-7.1-16.7-15.3-30.2-24.3-40.3C655.4,57.8,684.3,72.8,707.7,93.7z M575.1,222.9l-60.4,0.7c0.2-24.7,2.4-48.5,6.3-70.3
	c17.3,5.3,35.4,8.4,54,9L575.1,222.9z M575.1,241.9l0.1,53.6c-18.5,1.1-36.6,4.7-53.8,10.6c-3.7-19.9-5.9-41.3-6.6-63.4L575.1,241.9
	z M594.1,241.7l60.4-0.7c-0.2,22.1-2,43.5-5.2,63.5c-17.6-5.6-36.1-8.7-55.1-9.3L594.1,241.7z M594.1,222.7L594,162
	c18.1-1.1,35.7-4.5,52.5-10.1c4.4,21.7,7.1,45.4,7.9,70.1L594.1,222.7z M630.5,98.8c4.5,10.5,8.3,22.1,11.6,34.5
	c-15.4,5.3-31.6,8.5-48.2,9.6l-0.2-91.7C606.9,57.2,619.8,73.7,630.5,98.8z M574.7,50.1l0.2,93.1c-17.2-0.6-34-3.6-50-8.7
	c3-12.5,6.6-24.1,10.8-34.7C546.6,72.5,560.5,55,574.7,50.1z M541.4,51.9c-8.7,10.3-16.6,24-23.4,40.9c-4.3,10.7-8,22.5-11.1,35
	c-17.6-7.7-34-18.2-48.7-31.2C481.3,75.1,509.8,59.5,541.4,51.9z M445.1,110.2c17.3,15.5,36.8,27.8,57.8,36.5
	c-4.5,23.9-7,50-7.2,77.1l-96.4,1.1C401,181.1,418,141.2,445.1,110.2z M399.5,243.9l96.4-1.1c0.8,24.6,3.4,48.3,7.6,70.3
	c-21.7,9.8-41.6,23.4-59,40.5C418.7,323.8,402.1,285.8,399.5,243.9z M457.7,367.3c14.9-14.6,31.8-26.5,50.1-35.2
	c3.7,14.8,8.2,28.7,13.5,41.1c7.1,16.7,15.3,30.2,24.3,40.3C512,406.3,481.8,390,457.7,367.3z M538.7,365.8
	c-5.2-12.3-9.7-26.2-13.3-41c15.9-5.6,32.6-9.1,49.8-10.2l0.2,98.9C562.3,407.4,549.4,390.8,538.7,365.8z M594.6,414.5l-0.2-100.3
	c17.8,0.6,35.1,3.7,51.5,9.1c-3.3,15-7.4,28.9-12.3,41.4C622.6,392,608.8,409.5,594.6,414.5z M627.8,412.6
	c8.7-10.3,16.6-24,23.4-40.9c5-12.6,9.2-26.5,12.6-41.4c18.5,8.3,35.7,19.7,50.9,34.1C691,387.6,661.1,404.6,627.8,412.6z
	 M727.5,350.3c-17.8-16.7-38.1-29.9-60-39.2c3.8-22.1,5.8-45.8,6-70.4l96.4-1.1C768.3,281.6,752.6,320,727.5,350.3z"/>
<path class="st1" d="M966.6,539.1c-1-0.5-3-1.4-5.8-2.8c4.4-5.5,5.5-9.8,5.6-10l0.2-0.6l-0.3-0.6c0,0,0,0,0-0.1
	c0.5-2.5-0.6-5.7-3-8.4c-1.9-2.1-4.4-3.5-6.7-3.8c-0.5-0.1-0.9-0.1-1.3,0c-0.1,0-0.1-0.1-0.1-0.1l-0.6-0.4l-0.7,0.1
	c-0.4,0.1-9,1.4-18.9,11.4c-0.1,0.1-0.3,0.3-0.4,0.4c-2.6-1.1-5.2-2.3-7.9-3.5c9.6-10.3,11.8-18.7,11.9-19.1l0.2-0.6l-0.3-0.6l0,0
	c1-3.7-0.5-8.7-4.3-12.9c-2.8-3.1-6.4-5.2-9.8-5.6c-0.9-0.1-1.8-0.1-2.6,0l0,0l-0.6-0.4l-0.7,0.1c-0.5,0.1-13.5,2.2-28.3,17.2
	c-1.8,1.8-3.4,3.6-5,5.3c-9.7-3.8-18.7-7-25.9-9.1c48.9-30.3,86.8-57.9,92.1-66.6c2.9-4.8,7.3-14.3,3.9-23.2
	c-2.7-6.8-9.3-11.8-19.9-14.8c-8.9-2.6-15.9-4.1-22.8-4.9c-24.5-3-46.8,3.3-70.4,19.8c-16.5,11.5-59.2,41.5-102,71.7
	c-6.2-0.3-12.7-0.7-19.7-1c4.7-7.2,6-12.3,6.1-12.6l0.2-0.6l-0.3-0.6c0.5-1.6,0.6-3.4,0.2-5.4c-0.6-3.6-2.5-7.4-5.4-10.6
	c-3.5-3.8-7.8-6.3-12-6.8c-1.2-0.2-2.4-0.1-3.5,0.1l-0.6-0.4l-0.7,0.1c-0.7,0.1-16.5,2.6-34.8,21.2c-4.2,4.3-7.9,8.5-11.1,12.5
	c-12-0.6-24.2-1.2-36.5-1.8c4.9-7,6.3-12,6.3-12.4l0.2-0.6l-0.3-0.6l0,0c1-3.8-0.5-8.8-4.4-13.1c-2.9-3.2-6.5-5.2-9.9-5.6
	c-0.9-0.1-1.8-0.1-2.7,0l0,0l-0.6-0.4l-0.7,0.1c-0.6,0.1-13.6,2.2-28.7,17.4c-4.4,4.4-8.1,8.7-11.1,12.8
	c-65.7-2.8-122.2-4.4-128.3-2.3c-10.9,3.9-19.9,13.1-19.3,19.7c0.2,1.8,1.2,4.9,6.2,5.8c9,1.6,153.2,24.5,238.9,36.2
	c-5.9,4.2-11.2,8-16,11.4c-7.4-4.1-17.6-8.6-22.5-10.6c-1.1-0.4-2.3-0.7-3.5-0.9c-4.2-0.5-9.1,0.6-11.3,2.7
	c-1.2,1.1-1.4,2.2-1.4,2.9c0,1.5,2.6,6.7,5.7,12.1c-18.6-2.2-40.5-3.8-43.8-4c-5.9-0.3-13.9,3.8-14.7,6.9
	c-0.7,2.8,51.3,13.8,63.8,15.7c-0.1,1.1-0.1,2.3,0.4,3.5c1.5,4.5,7.2,7.4,16.7,8.5l0,0c3,0.4,6.3,0.6,10.1,0.6
	c27.5,0.3,61.1-3.8,119.2-32.2c5.2,1.5,16.6,3.6,42.9,6.8c57.9,7.1,149.2,14.5,158.2,13.4c6.2-0.8,7.7-4.3,8.1-6.4
	C982.7,552.7,976,543.7,966.6,539.1z M629.9,567.1c-0.2-0.7-0.3-1.4-0.1-2.1c6.2-0.8,18.7-8.5,18.5-12.9c-0.1-1.9-10.3-3.8-23-5.4
	c-3.4-5.6-6.3-11.3-6.6-12.7c0.5-0.9,4.5-2.6,8.8-2.1c1,0.1,1.8,0.3,2.6,0.7c5,2,15.8,6.8,23.1,10.9l1,0.6l0.9-0.7
	c5.8-4.1,12.5-9,20-14.3c4.4,0.6,8.6,1.2,12.6,1.7c-9.3,6.4-14.9,10.5-15.5,10.9c-3.5,2.7-1.4,3.1,0.8,1.7c0.4-0.3,7-4.8,17.8-12.2
	c3.4,0.4,6.6,0.8,9.6,1.2l0,0c26.3,3.2,31.7,3.1,33.5,2.7c15.1-3.1,60.6-33.9,67.9-39.6c4.6-3.6,4.5-6.8,4-8.5
	c-1-3.6-5.4-6.1-12.3-6.9c-0.6-0.1-1.3-0.1-1.9-0.2c-1.9-0.1-9.4-0.5-21.1-1.2c55.5-35.1,119.7-72.3,149.6-77.4
	c0.6-0.1,1.3-0.2,1.9-0.3c-0.6,1.8-1,3.5-1.2,4.8c-1.2,9.8,2.7,19.2,9.6,25.6c-0.1,0.1-0.2,0.2-0.3,0.3
	c-11.6,10.5-104.8,67.1-171.5,101.7c-48.1,24.9-101.1,33.2-127,35.9C630.7,568.7,630.2,567.9,629.9,567.1z M570,472.4
	c-2.8,4.2-4.7,8.1-5.9,11.7c-55.4-2.7-105.4-4.7-131.8-5.7c3.1-3.3,7.7-6.5,13-8.4C450.7,468.1,503.7,469.6,570,472.4z M576.7,469.2
	c2.6-3.4,5.7-6.9,9.3-10.5c8.8-8.9,17-13.1,21.9-15c-0.5,1.4-0.6,3-0.3,4.7c0.5,3,2.1,6.2,4.5,8.8c2.9,3.2-42.4,41.2-43.6,39.8
	c-2.5-2.8-2.6-7.2-0.6-12.7c1.3-3.5,3.4-7.5,6.4-11.7c0.4-0.6,0.8-1.1,1.2-1.7C575.8,470.3,576.2,469.8,576.7,469.2z M665,473.3
	c2.7-3.3,5.8-6.8,9.3-10.3c11.2-11.4,21.5-16.4,27.5-18.6c-0.8,1.8-1,4-0.6,6.3c0.6,3.6,2.5,7.4,5.4,10.6
	c3.5,3.8-52.2,50.9-53.8,49.1c-4-4.4-3.3-12,1.4-21.3c2-3.9,4.7-8.1,8-12.5c0.4-0.6,0.9-1.1,1.3-1.7
	C664,474.4,664.5,473.9,665,473.3z M905.4,388.6c-2.6,0.5-5.2,1.1-7.7,1.8c0.1,2.7,0.4,5.7,0.8,8.7c7.1-2.2,17.7-4.7,27.4-6
	c-1,1.3-1.9,3-2.7,4.8c0.1-0.2,0.2-0.4,0.3-0.6c-1.3,0.2-2.6,0.4-3.9,0.6c-17.7,3-47,17.1-79.3,35.3l1-8.2l-6.2,3.9
	c-0.2,1.9-0.6,4.6-0.8,7.6c-1.2,0.7-2.5,1.4-3.7,2.1c0.2-2.6,0.4-5.2,0.7-7.3l-4.7,3c-0.2,2-0.5,4.5-0.7,7.1
	c-1.2,0.7-2.5,1.4-3.7,2.2c0.1-2.4,0.3-4.7,0.5-6.8l-4.8,3c-0.2,1.9-0.4,4.2-0.6,6.6c-1.2,0.7-2.4,1.5-3.7,2.2
	c0.1-2.2,0.3-4.4,0.5-6.4l-4.8,3c-0.2,1.7-0.5,3.9-0.7,6.3c-1.2,0.8-2.5,1.5-3.7,2.3c0.2-2.2,0.4-4.3,0.6-6.2l-4.7,3
	c-0.2,1.7-0.4,3.8-0.6,6.1c-11.6,7.1-23.2,14.4-34.4,21.6c-5.3-0.3-11.3-0.6-17.9-1c41.5-29.3,82.3-57.9,98.3-69.2
	C866.1,394.5,885.2,388.1,905.4,388.6z M936.3,394.1c6.6,1.9,11.5,4.6,14.6,8c1,12.8-10.1,21-17.7,27.2c-6.4-5.7-9.9-14-8.9-22.9
	c0.5-4.2,3.7-11.3,6.8-13.7C932.8,393.1,934.5,393.6,936.3,394.1z M890.6,505.7c1.3-1.4,2.6-2.8,4-4.2c8.7-8.8,16.7-12.9,21.6-14.8
	c-0.4,1.4-0.6,2.9-0.3,4.6c0.5,3,2.1,6.1,4.5,8.7c2.8,3.1-41.8,40.7-43.1,39.3c-3.4-3.8-2.3-10.8,2.6-19.3c2.1-3.6,4.9-7.5,8.3-11.6
	c0.4-0.5,0.8-0.9,1.2-1.4C889.7,506.6,890.1,506.1,890.6,505.7z M937.5,526.4c0.2-0.2,0.3-0.3,0.5-0.5c4.9-4.9,9.5-7.4,12.5-8.7
	c-0.3,2.5,0.7,5.5,3.1,8.1c1.9,2.1-26.7,25.8-27.4,25c-2.1-2.3-1.5-7.3,3.2-14.2c1.6-2.3,3.5-4.8,6.1-7.6c0.4-0.4,0.9-0.9,1.3-1.4
	C937,526.9,937.2,526.6,937.5,526.4z M925.9,534.9c-3.7-1.2-7.4-2.5-11.1-3.7c1.3-1,2.6-2,3.9-3c2-1.6,3.8-3.2,5.4-4.7
	c2.7,1.2,5.4,2.4,8,3.5C929.5,529.8,927.5,532.4,925.9,534.9z M876.3,519c-14.3-4.4-27.1-8.3-36.2-11c-0.8-0.2-1.6-0.5-2.3-0.7
	c5.7-3.4,11.4-6.8,16.8-10.1c0.8,0.2,1.6,0.4,2.4,0.6c7.1,1.8,16.8,5.2,27.5,9.4C881.2,511.3,878.4,515.3,876.3,519z M743.1,480.9
	c6,0.3,11.8,0.6,17.5,0.9c1.6,0.1,3.1,0.2,4.7,0.3c9.1,0.5,17.8,1,26,1.4c0.6,0,1.2,0.1,1.7,0.2c6.2,0.8,8.8,2.7,9.3,4.4
	c0.5,1.8-1.6,3.7-2.8,4.7c-1.8,1.4-6,4.4-11.5,8.1c-11.8-1.7-26.8-3.4-44.1-5c-1.4-0.1-2.7-0.3-4.1-0.4c-5-0.4-10.1-0.9-15.4-1.3
	c-0.9-0.1-1.8-0.2-2.7-0.2c-0.9-0.1-1.8-0.1-2.7-0.2c-3.6-0.3-7.2-0.6-10.9-0.9c5.2-4.7,9.1-9.2,12.1-13.2
	c5.9,0.3,11.7,0.6,17.4,0.9c1,0.1,1.9,0.1,2.8,0.2C741.2,480.8,742.2,480.8,743.1,480.9z M650.5,488.9c-13.5-0.8-27.3-1.6-41.1-2.4
	c0.3-0.2,0.6-0.5,0.9-0.7c4.7-3.8,8.4-7.6,11.2-11.1c12.1,0.6,24.3,1.2,36.5,1.8C654.8,480.8,652.3,485,650.5,488.9z M952.7,544.3
	c0.2-0.1,0.3-0.2,0.5-0.4c2.1-1.7,3.8-3.3,5.3-4.9c2.9,1.4,5.2,2.5,6.6,3.2c5.8,2.9,10.2,7.6,12.1,11.6
	C970.2,550.9,961.9,547.6,952.7,544.3z"/>
<path class="st1" d="M1882.7,352.7"/>
<path class="st1" d="M1042.9,350.3"/>
<g>
	<path class="st1" d="M1075.2,320.2c-20.3,0-36.8-6.7-49.5-20.1c-12.8-13.4-19.1-31.4-19.1-53.9c0-21.5,6.1-39.3,18.3-53.3
		c12.2-14,29.1-21,50.8-21c20,0,36.4,6.6,49,19.8s18.9,30.9,18.9,52.9c0,22.9-6.4,41.2-19.1,54.9
		C1111.8,313.3,1095.3,320.2,1075.2,320.2z M1075,287.5c7.5,0,12.8-3.3,16.1-9.8c3.3-6.5,4.9-18.4,4.9-35.7c0-25-6.7-37.5-20.1-37.5
		c-14.5,0-21.7,14.3-21.7,42.8C1054.1,274.1,1061.1,287.5,1075,287.5z"/>
	<path class="st1" d="M1285.3,318h-36l-39.4-63.6c-5.1-8.2-10.2-18.1-15.3-29.7c2.3,9.3,3.5,17.2,3.5,23.6V318h-35.9V174h41.8
		l33.5,52.7c6.7,10.5,11.7,19.7,15.2,27.6c-2.3-12.3-3.4-24.9-3.4-37.8V174h36L1285.3,318L1285.3,318z"/>
	<path class="st1" d="M1411.4,282.7V318h-100.9V174h44.2v108.6h56.7V282.7z"/>
	<path class="st1" d="M1471,174v144h-44.2V174H1471z"/>
	<path class="st1" d="M1619.1,318h-36l-39.4-63.6c-5.1-8.2-10.2-18.1-15.3-29.7c2.3,9.3,3.5,17.2,3.5,23.6V318H1496V174h41.8
		l33.5,52.7c6.7,10.5,11.7,19.7,15.2,27.6c-2.3-12.3-3.4-24.9-3.4-37.8V174h36L1619.1,318L1619.1,318z"/>
	<path class="st1" d="M1752.6,283.6V318h-108.3V174h108.3v33.2h-65v20.9h52.5v32h-52.5v23.5L1752.6,283.6L1752.6,283.6z"/>
</g>
<g>
	<path class="st1" d="M1054.5,432.4v36.2h-31v-99.7h42.6c10.6,0,18.7,1.2,24.2,3.7c5.5,2.4,9.9,6.2,13.1,11.2s4.9,10.6,4.9,16.9
		c0,9.5-3.3,17.2-9.9,23s-15.5,8.8-26.5,8.8h-17.4V432.4z M1054.1,411h10.2c9,0,13.5-3.3,13.5-9.9c0-6.2-4.2-9.3-12.5-9.3h-11.2V411
		z"/>
	<path class="st1" d="M1168.2,468.6l-5.6-19.6h-26.7l-6,19.6h-24.8l30.8-99.7h32.4l31.3,99.7L1168.2,468.6L1168.2,468.6z
		 M1141.1,427.2h16.1l-8.1-28.9L1141.1,427.2z"/>
	<path class="st1" d="M1198.3,439.8l28.4-5.1c2.4,8,8.5,12.1,18.4,12.1c7.7,0,11.5-2,11.5-6.1c0-2.1-0.9-3.8-2.7-5
		c-1.8-1.2-5-2.3-9.5-3.2c-17.5-3.4-28.7-7.7-33.7-13.1s-7.4-11.8-7.4-19.1c0-9.4,3.6-17.2,10.7-23.5c7.1-6.2,17.4-9.4,30.8-9.4
		c20.3,0,33.7,8.2,40.2,24.5l-25.3,7.7c-2.6-6.7-8-10-16-10c-6.7,0-10,2.1-10,6.2c0,1.9,0.8,3.3,2.3,4.3s4.4,2,8.8,2.9
		c11.9,2.5,20.4,4.8,25.4,6.7c5,1.9,9.2,5.3,12.6,10s5,10.2,5,16.6c0,10.1-4.1,18.3-12.3,24.5c-8.2,6.3-18.9,9.4-32.2,9.4
		C1219,470.1,1204,460,1198.3,439.8z"/>
	<path class="st1" d="M1289.2,439.8l28.4-5.1c2.4,8,8.5,12.1,18.4,12.1c7.7,0,11.5-2,11.5-6.1c0-2.1-0.9-3.8-2.7-5
		c-1.8-1.2-5-2.3-9.5-3.2c-17.5-3.4-28.7-7.7-33.7-13.1s-7.4-11.8-7.4-19.1c0-9.4,3.6-17.2,10.7-23.5c7.1-6.2,17.4-9.4,30.8-9.4
		c20.3,0,33.7,8.2,40.2,24.5l-25.3,7.7c-2.6-6.7-8-10-16-10c-6.7,0-10,2.1-10,6.2c0,1.9,0.8,3.3,2.3,4.3s4.4,2,8.8,2.9
		c11.9,2.5,20.4,4.8,25.4,6.7c5,1.9,9.2,5.3,12.6,10s5,10.2,5,16.6c0,10.1-4.1,18.3-12.3,24.5c-8.2,6.3-18.9,9.4-32.2,9.4
		C1309.9,470.1,1294.9,460,1289.2,439.8z"/>
	<path class="st1" d="M1421.4,432.4v36.2h-31v-99.7h42.6c10.6,0,18.7,1.2,24.2,3.7c5.5,2.4,9.9,6.2,13.1,11.2s4.9,10.6,4.9,16.9
		c0,9.5-3.3,17.2-9.9,23s-15.5,8.8-26.5,8.8h-17.4V432.4z M1421,411h10.2c9,0,13.5-3.3,13.5-9.9c0-6.2-4.2-9.3-12.5-9.3H1421V411z"
		/>
	<path class="st1" d="M1529.7,470.1c-14,0-25.5-4.6-34.3-14c-8.8-9.3-13.3-21.7-13.3-37.3c0-14.9,4.2-27.2,12.7-36.9
		c8.4-9.7,20.2-14.6,35.2-14.6c13.9,0,25.2,4.6,33.9,13.7c8.7,9.2,13.1,21.4,13.1,36.7c0,15.8-4.4,28.5-13.2,38.1
		C1554.9,465.4,1543.6,470.1,1529.7,470.1z M1529.5,447.5c5.2,0,8.9-2.3,11.1-6.8c2.3-4.5,3.4-12.7,3.4-24.7c0-17.3-4.7-26-14-26
		c-10,0-15,9.9-15,29.7C1515,438.2,1519.9,447.5,1529.5,447.5z"/>
	<path class="st1" d="M1678.6,468.6h-33.9l-14.6-38.1h-9.7v38.1h-30.6v-99.7h52.1c11.5,0,20.4,2.7,26.8,8.1s9.5,12.5,9.5,21.3
		c0,5.7-1.2,10.8-3.5,15.2c-2.3,4.4-7.1,8.3-14.2,11.6L1678.6,468.6z M1620.5,409.2h13.1c3.8,0,6.9-0.8,9.3-2.4
		c2.3-1.6,3.5-4,3.5-7.1c0-6.4-3.9-9.6-11.8-9.6h-14.1V409.2z"/>
	<path class="st1" d="M1735,392.8v75.8h-29v-75.8h-20.7v-23.9h70.3v23.9H1735z"/>
</g>
</svg>
