<?xml version="1.0" encoding="utf-8"?>
<!-- Generator: Adobe Illustrator 21.0.0, SVG Export Plug-In . SVG Version: 6.00 Build 0)  -->
<svg version="1.1" id="Layer_1" xmlns="http://www.w3.org/2000/svg" xmlns:xlink="http://www.w3.org/1999/xlink" x="0px" y="0px"
	 viewBox="0 0 480 480" style="enable-background:new 0 0 480 480;" xml:space="preserve">
<style type="text/css">
	.st0{fill:none;stroke:#92ABC5;stroke-width:3;stroke-miterlimit:10;}
</style>
<path class="st0" d="M426.9,231.6l-83.1-83.1c-2.4-2.3-5-4.3-7.8-5.9V8c0-4.4-3.6-8-8-8H72C49.9,0,32,17.9,32,40v320
	c0,22.1,17.9,40,40,40h192.4c4.2,45.3,42.1,79.9,87.6,80h88c4.4,0,8-3.6,8-8V282.5C448.1,263.4,440.5,245.1,426.9,231.6z M48,360V40
	c0-13.3,10.7-24,24-24h248v300.7l-56.2-56.2c-10-10.5-24.9-14.7-39-11c-14,3.7-25,14.6-28.6,28.6s0.6,28.9,11.1,38.9l9.6,9.6
	c0.1,0.1,0.1,0.1,0.1,0.2c0.1,0.1,0.1,0.1,0.2,0.1l39.7,39.8c4.5,4.5,7.1,10.6,7,16.9L72,384C58.7,384,48,373.3,48,360z
	 M218.6,305.8c-4.5-4.5-7.1-10.6-7.1-17c0-6.4,2.5-12.5,7.1-17c9.5-9.1,24.4-9.1,33.9,0 M346.3,365.7c3.1,3,8.1,3,11.2-0.1
	s3.1-8.1,0.1-11.2L336,332.7V163.3l79.6,79.6c10.5,10.5,16.4,24.7,16.4,39.6V464h-80c-39.7,0-72-32.3-72-72v-8.2
	c0-10.6-4.2-20.8-11.7-28.3"/>
<path class="st0" d="M72,96c4.4,0,8-3.6,8-8V56c0-4.4,3.6-8,8-8h32c4.4,0,8-3.6,8-8s-3.6-8-8-8H88c-13.3,0-24,10.7-24,24v32
	C64,92.4,67.6,96,72,96z"/>
<path class="st0" d="M120,352H88c-4.4,0-8-3.6-8-8v-32c0-4.4-3.6-8-8-8s-8,3.6-8,8v32c0,13.3,10.7,24,24,24h32c4.4,0,8-3.6,8-8
	S124.4,352,120,352z"/>
<path class="st0" d="M264,136c0-44.2-35.8-80-80-80s-80,35.8-80,80s35.8,80,80,80C228.2,216,264,180.2,264,136z M247.4,128h-15.7
	c-0.7-15.5-4.5-30.7-11.4-44.6C235.3,93.8,245.2,110,247.4,128z M176,74.4V128h-23.7C154,100.9,164.6,81,176,74.4z M176,144v53.6
	c-11.4-6.6-22-26.6-23.7-53.6H176z M192,197.6V144h23.7C214,171.1,203.4,191,192,197.6z M192,128V74.4c11.4,6.6,22,26.6,23.7,53.6
	H192z M147.6,83.4c-6.8,13.9-10.7,29.1-11.4,44.6h-15.7C122.8,110,132.7,93.8,147.6,83.4z M120.6,144h15.7
	c0.7,15.5,4.5,30.7,11.4,44.6C132.7,178.2,122.8,162,120.6,144z M220.4,188.6c6.8-13.9,10.7-29.1,11.4-44.6h15.7
	C245.2,162,235.3,178.2,220.4,188.6z"/>
<line class="st0" x1="222.7" y1="309.9" x2="235.5" y2="322.7"/>
<line class="st0" x1="255.2" y1="274.5" x2="268" y2="287.3"/>
<line class="st0" x1="234.7" y1="321.8" x2="269.8" y2="357.2"/>
<line class="st0" x1="267.1" y1="286.4" x2="346.3" y2="365.7"/>
<line class="st0" x1="223.4" y1="310.6" x2="218" y2="305.2"/>
<line class="st0" x1="256" y1="275.4" x2="251.3" y2="270.7"/>
<line class="st0" x1="336" y1="332.7" x2="320" y2="316.7"/>
<line class="st0" x1="336" y1="163.3" x2="336" y2="141.2"/>
<line class="st0" x1="264" y1="383.8" x2="264.4" y2="400"/>
</svg>
